Waveforms/pss-hpfsimple-scaling.csv

#Digilent WaveForms Oscilloscope Acquisition
#Device Name: Discovery3
#Serial Number: SN:210415BD8794
#Date Time: 2026-03-26 10:14:57.818.246.728
#Sample rate: 136.533Hz
#Samples: 16000
#Trigger: Source: Channel 1 Type: Edge Condition: Rising Level: 0 V Hyst.: Auto HoldOff: 0 s
#Channel 1: Range: 500 mV/div Offset: -1 V Sample Mode: Average
#Channel 2: Range: 100 mV/div Offset: -1.5 V Sample Mode: Average
#Wavegen Channel 1: Disabled
#Mode: Simple
#Type: Sine
#Frequency: 1 kHz
#Period: 1 ms
#Amplitude: 1 V
#Offset: 0 V
#Symmetry: 50 %
#Phase: 0 °
#Wavegen Channel 2: Disabled
#Mode: Simple
#Type: Sine
#Frequency: 1 kHz
#Period: 1 ms
#Amplitude: 1 V
#Offset: 0 V
#Symmetry: 50 %
#Phase: 0 °
#Wavegen Channel 3: Disabled
#Mode: Simple
#Type: DC
#Offset: 2.75 V
#Wavegen Channel 4: Disabled
#Mode: Simple
#Type: DC
#Offset: -2.75 V

Time (s),Channel 1 (V),Channel 2 (V)
-58.59392,0.9994848948710915,1.511034157681917
-58.58659575999999,0.9994848948710915,1.510698952941867
-58.57927151999999,0.9994012864704644,1.51078275412688
-58.57194728,0.9994012864704644,1.510866555311892
-58.56462303999999,0.9994012864704644,1.511285561236955
-58.5572988,0.9994012864704644,1.511201760051942
-58.54997456,0.9994012864704644,1.511285561236955
-58.54265031999999,0.9994848948710915,1.511201760051942
-58.53532608,0.9994848948710915,1.511201760051942
-58.52800183999999,0.9994848948710915,1.511201760051942
-58.52067759999999,0.9994848948710915,1.51111795886693
-58.51335336,0.9995685032717184,1.511201760051942
-58.50602911999999,0.9994848948710915,1.511201760051942
-58.49870488,0.9994848948710915,1.51111795886693
-58.49138064,0.9995685032717184,1.51111795886693
-58.48405639999999,0.9994012864704644,1.511201760051942
-58.47673216,0.9994848948710915,1.510698952941867
-58.46940791999999,0.9995685032717184,1.510363748201817
-58.46208367999999,0.9994848948710915,1.510363748201817
-58.45475944,0.9994012864704644,1.510698952941867
-58.44743519999999,0.9994848948710915,1.510866555311892
-58.44011096,0.9994012864704644,1.510950356496905
-58.43278672,0.9994012864704644,1.51111795886693
-58.42546247999999,0.9994012864704644,1.511201760051942
-58.41813824,0.9994848948710915,1.511201760051942
-58.41081399999999,0.9995685032717184,1.511201760051942
-58.40348975999999,0.9994848948710915,1.511285561236955
-58.39616552,0.9994848948710915,1.510950356496905
-58.38884127999999,0.9994012864704644,1.51078275412688
-58.38151704,0.9994012864704644,1.510615151756855
-58.3741928,0.9994012864704644,1.510447549386829
-58.36686855999999,0.9994848948710915,1.510866555311892
-58.35954432,0.9994848948710915,1.51111795886693
-58.35222008,0.9994848948710915,1.511201760051942
-58.34489583999999,0.9994848948710915,1.510447549386829
-58.3375716,0.9994848948710915,1.509860941091742
-58.33024735999999,0.9995685032717184,1.509609537536704
-58.32292311999999,0.9994848948710915,1.509693338721717
-58.31559888,0.9994848948710915,1.509609537536704
-58.30827463999999,0.9994012864704644,1.509693338721717
-58.3009504,0.9994012864704644,1.510363748201817
-58.29362616,0.9994848948710915,1.510447549386829
-58.28630191999999,0.9994012864704644,1.510531350571842
-58.27897768,0.9994848948710915,1.510531350571842
-58.27165343999999,0.9994012864704644,1.510447549386829
-58.26432919999999,0.9994848948710914,1.510447549386829
-58.25700496,0.9994012864704644,1.510531350571842
-58.24968071999999,0.9994848948710915,1.510363748201817
-58.24235648,0.9994012864704644,1.510950356496905
-58.23503224,0.9994012864704644,1.510447549386829
-58.22770799999999,0.9994848948710915,1.510950356496905
-58.22038376,0.9994848948710915,1.51111795886693
-58.21305951999999,0.9994848948710915,1.511201760051942
-58.20573527999999,0.9994012864704644,1.51111795886693
-58.19841104,0.9994012864704644,1.511201760051942
-58.19108679999999,0.9994848948710915,1.510866555311892
-58.18376256,0.9994012864704644,1.510363748201817
-58.17643832,0.9994012864704644,1.510363748201817
-58.16911407999999,0.9994012864704644,1.510363748201817
-58.16178984,0.9994012864704644,1.510866555311892
-58.15446559999999,0.9994012864704644,1.51111795886693
-58.14714135999999,0.9994012864704644,1.511034157681917
-58.13981712,0.9994848948710915,1.51111795886693
-58.13249287999999,0.9994848948710915,1.51111795886693
-58.12516864,0.9994848948710915,1.511201760051942
-58.1178444,0.9994848948710915,1.511369362421967
-58.11052015999999,0.9994848948710915,1.511955970717055
-58.10319592,0.9994848948710915,1.511955970717055
-58.09587167999999,0.9994848948710915,1.511955970717055
-58.08854743999999,0.9994012864704644,1.511536964791992
-58.0812232,0.9994012864704644,1.511285561236955
-58.07389895999999,0.9994848948710915,1.511704567162017
-58.06657472,0.9994848948710915,1.511201760051942
-58.05925048,0.9994848948710915,1.511955970717055
-58.05192623999999,0.9994012864704644,1.51145316360698
-58.044602,0.9994848948710915,1.511201760051942
-58.03727775999999,0.9994012864704644,1.511369362421967
-58.02995351999999,0.9994848948710915,1.511201760051942
-58.02262928,0.9994848948710915,1.511620765977005
-58.01530503999999,0.9994848948710915,1.511955970717055
-58.0079808,0.9994848948710915,1.511536964791993
-58.00065656,0.9994848948710915,1.511201760051942
-57.99333231999999,0.9994848948710915,1.51111795886693
-57.98600808,0.9994848948710915,1.51111795886693
-57.97868384,0.9995685032717184,1.511201760051942
-57.97135959999999,0.9994848948710915,1.511620765977005
-57.96403536,0.9994848948710915,1.511872169532042
-57.95671111999999,0.9994848948710915,1.512039771902068
-57.94938687999999,0.9994848948710915,1.511536964791993
-57.94206264,0.9994848948710915,1.511704567162017
-57.93473839999999,0.9994848948710915,1.511955970717055
-57.92741416,0.9994848948710915,1.511955970717055
-57.92008992,0.9994848948710915,1.511704567162017
-57.91276567999999,0.9995685032717184,1.511201760051942
-57.90544144,0.9994848948710915,1.511201760051942
-57.89811719999999,0.9994848948710915,1.511201760051942
-57.89079295999999,0.9995685032717184,1.511201760051942
-57.88346872,0.9995685032717184,1.511285561236955
-57.87614447999999,0.9995685032717184,1.511620765977005
-57.86882024,0.9995685032717184,1.511285561236955
-57.861496,0.9995685032717184,1.511285561236955
-57.85417175999999,0.9995685032717184,1.511369362421967
-57.84684752,0.9994848948710915,1.511285561236955
-57.83952327999999,0.9995685032717184,1.511369362421967
-57.83219903999999,0.9995685032717184,1.511285561236955
-57.8248748,0.9995685032717184,1.511285561236955
-57.81755055999999,0.9994848948710915,1.511369362421967
-57.81022632,0.9994848948710915,1.511369362421967
-57.80290208,0.9995685032717184,1.511369362421967
-57.79557783999999,0.9995685032717184,1.510950356496905
-57.7882536,0.9995685032717184,1.510531350571842
-57.78092935999999,0.9995685032717184,1.510196145831792
-57.77360511999999,0.9995685032717184,1.510531350571842
-57.76628088,0.9995685032717184,1.510363748201817
-57.75895663999999,0.9995685032717184,1.510363748201817
-57.7516324,0.9994848948710915,1.510447549386829
-57.74430816,0.9994848948710915,1.510447549386829
-57.73698391999999,0.9995685032717184,1.510363748201817
-57.72965968,0.9995685032717184,1.510447549386829
-57.72233543999999,0.9994848948710915,1.510447549386829
-57.71501119999999,0.9994848948710915,1.510447549386829
-57.70768696,0.9994848948710915,1.510447549386829
-57.70036271999999,0.9994848948710915,1.510447549386829
-57.69303848,0.9994848948710915,1.510112344646779
-57.68571424,0.9995685032717184,1.509609537536704
-57.67838999999999,0.9994848948710915,1.509777139906729
-57.67106576,0.9994848948710915,1.510112344646779
-57.66374151999999,0.9995685032717184,1.510279947016804
-57.65641727999999,0.9995685032717184,1.509860941091742
-57.64909304,0.9994848948710915,1.510279947016804
-57.64176879999999,0.9994848948710915,1.510279947016804
-57.63444456,0.9994848948710915,1.510363748201817
-57.62712032,0.9994848948710915,1.510363748201817
-57.61979607999999,0.9994848948710915,1.51111795886693
-57.61247184,0.9994848948710915,1.511285561236955
-57.6051476,0.9994012864704644,1.510698952941867
-57.59782335999999,0.9994848948710915,1.510531350571842
-57.59049912,0.9994848948710915,1.510363748201817
-57.58317487999999,0.9994848948710915,1.51111795886693
-57.57585063999999,0.9994848948710915,1.511201760051942
-57.5685264,0.9994848948710915,1.511201760051942
-57.56120215999999,0.9994848948710915,1.511201760051942
-57.55387792,0.9994848948710915,1.511201760051942
-57.54655368,0.9994848948710915,1.51111795886693
-57.53922943999999,0.9995685032717184,1.510447549386829
-57.5319052,0.9995685032717184,1.511034157681917
-57.52458095999999,0.9995685032717184,1.51111795886693
-57.51725671999999,0.9995685032717184,1.51111795886693
-57.50993248,0.9995685032717184,1.51111795886693
-57.50260823999999,0.9995685032717184,1.51111795886693
-57.495284,0.9994848948710915,1.51111795886693
-57.48795976,0.9994848948710915,1.51111795886693
-57.48063551999999,0.9994848948710915,1.51111795886693
-57.47331128,0.9995685032717184,1.51111795886693
-57.46598703999999,0.9995685032717184,1.511201760051942
-57.45866279999999,0.9995685032717184,1.511201760051942
-57.45133856,0.9995685032717184,1.51111795886693
-57.44401431999999,0.9995685032717184,1.511201760051942
-57.43669008,0.9995685032717184,1.51111795886693
-57.42936584,0.9995685032717184,1.511201760051942
-57.42204159999999,0.9996521116723454,1.51111795886693
-57.41471736,0.9995685032717184,1.51111795886693
-57.40739311999999,0.9995685032717184,1.51111795886693
-57.40006887999999,0.9995685032717184,1.51111795886693
-57.39274464,0.9994848948710915,1.511034157681917
-57.38542039999999,0.9994848948710915,1.511034157681917
-57.37809616,0.9995685032717184,1.511034157681917
-57.37077192,0.9995685032717184,1.51111795886693
-57.36344767999999,0.9995685032717184,1.511034157681917
-57.35612344,0.9995685032717184,1.511034157681917
-57.34879919999999,0.9995685032717184,1.511034157681917
-57.34147495999999,0.9995685032717184,1.511034157681917
-57.33415072,0.9994848948710915,1.51111795886693
-57.32682647999999,0.9994848948710915,1.511034157681917
-57.31950224,0.9994848948710915,1.51111795886693
-57.312178,0.9994848948710915,1.51111795886693
-57.30485375999999,0.9994848948710915,1.511034157681917
-57.29752952,0.9994848948710915,1.51111795886693
-57.29020528,0.9995685032717184,1.511034157681917
-57.28288103999999,0.9995685032717184,1.51111795886693
-57.2755568,0.9994848948710915,1.51111795886693
-57.26823255999999,0.9994848948710915,1.511034157681917
-57.26090832,0.9995685032717183,1.51111795886693
-57.25358408,0.9995685032717184,1.511034157681917
-57.24625983999999,0.9994848948710915,1.51111795886693
-57.2389356,0.9995685032717184,1.51111795886693
-57.23161136,0.9995685032717184,1.511201760051942
-57.22428711999999,0.9995685032717184,1.51111795886693
-57.21696288,0.9995685032717184,1.51111795886693
-57.20963863999999,0.9995685032717184,1.51111795886693
-57.20231439999999,0.9995685032717184,1.51111795886693
-57.19499016,0.9995685032717184,1.51111795886693
-57.18766591999999,0.9995685032717184,1.51111795886693
-57.18034168,0.9995685032717184,1.51111795886693
-57.17301744,0.9994848948710915,1.51111795886693
-57.16569319999999,0.9994848948710915,1.511201760051942
-57.15836896,0.9994848948710915,1.511201760051942
-57.15104471999999,0.9995685032717184,1.51111795886693
-57.14372047999999,0.9995685032717184,1.51111795886693
-57.13639624,0.9995685032717184,1.51111795886693
-57.12907199999999,0.9994848948710915,1.51111795886693
-57.12174776,0.9995685032717184,1.51111795886693
-57.11442352,0.9995685032717184,1.511201760051942
-57.10709927999999,0.9994848948710915,1.51111795886693
-57.09977504,0.9994848948710915,1.511201760051942
-57.09245079999999,0.9995685032717184,1.51111795886693
-57.08512655999999,0.9995685032717184,1.51111795886693
-57.07780232,0.9994848948710915,1.511201760051942
-57.07047807999999,0.9994848948710915,1.511201760051942
-57.06315384,0.9994848948710915,1.511201760051942
-57.0558296,0.9994848948710915,1.511201760051942
-57.04850535999999,0.9994848948710915,1.511285561236955
-57.04118112,0.9994848948710915,1.511201760051942
-57.03385687999999,0.9994848948710915,1.511285561236955
-57.02653263999999,0.9994848948710915,1.511201760051942
-57.0192084,0.9994012864704644,1.51111795886693
-57.01188415999999,0.9994848948710915,1.511201760051942
-57.00455992,0.9994848948710915,1.511201760051942
-56.99723568,0.9994012864704644,1.51111795886693
-56.98991143999999,0.9994012864704644,1.511201760051942
-56.9825872,0.9994848948710915,1.511201760051942
-56.97526295999999,0.9994848948710915,1.51111795886693
-56.96793871999999,0.9994012864704644,1.511201760051942
-56.96061448,0.9994848948710915,1.511201760051942
-56.95329023999999,0.9994848948710915,1.511201760051942
-56.945966,0.9994848948710915,1.51111795886693
-56.93864176,0.9994848948710915,1.51111795886693
-56.93131751999999,0.9995685032717184,1.51111795886693
-56.92399328,0.9994848948710915,1.51111795886693
-56.91666904,0.9994848948710915,1.51111795886693
-56.90934479999999,0.9994848948710915,1.51111795886693
-56.90202056,0.9995685032717184,1.51111795886693
-56.89469631999999,0.9994848948710915,1.511034157681917
-56.88737208,0.9994848948710915,1.51111795886693
-56.88004784,0.9994848948710915,1.51111795886693
-56.87272359999999,0.9994848948710915,1.51111795886693
-56.86539936,0.9994848948710915,1.51111795886693
-56.85807512,0.9994848948710915,1.51111795886693
-56.85075087999999,0.9994848948710915,1.51111795886693
-56.84342664,0.9994848948710915,1.51111795886693
-56.83610239999999,0.9994012864704644,1.51111795886693
-56.82877815999999,0.9994848948710915,1.51111795886693
-56.82145392,0.9994848948710915,1.51111795886693
-56.81412967999999,0.9995685032717184,1.511034157681917
-56.80680544,0.9995685032717184,1.51111795886693
-56.7994812,0.9995685032717184,1.51111795886693
-56.79215695999999,0.9995685032717184,1.51111795886693
-56.78483272,0.9994848948710915,1.51111795886693
-56.77750847999999,0.9994848948710915,1.51111795886693
-56.77018423999999,0.9994848948710914,1.511201760051942
-56.76286,0.9994012864704644,1.511201760051942
-56.75553575999999,0.9994848948710915,1.511201760051942
-56.74821152,0.9994848948710915,1.51111795886693
-56.74088728,0.9994848948710915,1.51111795886693
-56.73356303999999,0.9994848948710915,1.51111795886693
-56.7262388,0.9995685032717184,1.511034157681917
-56.71891455999999,0.9995685032717184,1.511034157681917
-56.71159031999999,0.9994848948710915,1.51111795886693
-56.70426608,0.9995685032717184,1.51111795886693
-56.69694183999999,0.9995685032717184,1.51111795886693
-56.6896176,0.9995685032717184,1.51111795886693
-56.68229336,0.9995685032717184,1.51111795886693
-56.67496911999999,0.9995685032717184,1.51111795886693
-56.66764488,0.9995685032717184,1.51111795886693
-56.66032063999999,0.9994848948710915,1.51111795886693
-56.65299639999999,0.9995685032717184,1.51111795886693
-56.64567216,0.9995685032717184,1.51111795886693
-56.63834791999999,0.9995685032717184,1.511201760051942
-56.63102368,0.9994848948710915,1.511201760051942
-56.62369944,0.9995685032717184,1.511201760051942
-56.61637519999999,0.9994848948710915,1.511201760051942
-56.60905096,0.9994848948710915,1.51111795886693
-56.60172671999999,0.9994848948710915,1.51111795886693
-56.59440247999999,0.9994848948710915,1.51111795886693
-56.58707824,0.9994848948710915,1.511201760051942
-56.57975399999999,0.9995685032717184,1.51111795886693
-56.57242976,0.9995685032717184,1.51111795886693
-56.56510552,0.9994848948710915,1.51111795886693
-56.55778127999999,0.9994848948710915,1.51111795886693
-56.55045704,0.9994848948710915,1.51111795886693
-56.5431328,0.9995685032717184,1.51111795886693
-56.53580855999999,0.9995685032717184,1.51111795886693
-56.52848432,0.9994848948710915,1.51111795886693
-56.52116007999999,0.9995685032717184,1.51111795886693
-56.51383584,0.9995685032717184,1.51111795886693
-56.5065116,0.9995685032717184,1.51111795886693
-56.49918735999999,0.9995685032717184,1.51111795886693
-56.49186312,0.9995685032717184,1.51111795886693
-56.48453888,0.9994848948710915,1.511201760051942
-56.47721463999999,0.9994848948710915,1.511034157681917
-56.4698904,0.9994848948710915,1.511034157681917
-56.46256615999999,0.9994848948710915,1.511034157681917
-56.45524191999999,0.9995685032717184,1.511034157681917
-56.44791768,0.9995685032717184,1.51111795886693
-56.44059343999999,0.9995685032717184,1.51111795886693
-56.4332692,0.9995685032717184,1.511034157681917
-56.42594496,0.9994848948710915,1.51111795886693
-56.41862071999999,0.9994848948710915,1.511034157681917
-56.41129648,0.9994848948710915,1.511034157681917
-56.40397223999999,0.9994012864704644,1.511034157681917
-56.39664799999999,0.9994848948710915,1.511034157681917
-56.38932376,0.9994848948710915,1.511034157681917
-56.38199951999999,0.9994848948710915,1.511034157681917
-56.37467528,0.9995685032717184,1.51111795886693
-56.36735104,0.9995685032717184,1.51111795886693
-56.36002679999999,0.9994848948710915,1.51111795886693
-56.35270256,0.9995685032717184,1.511034157681917
-56.34537831999999,0.9995685032717184,1.51111795886693
-56.33805407999999,0.9995685032717184,1.51111795886693
-56.33072984,0.9995685032717184,1.511034157681917
-56.32340559999999,0.9995685032717184,1.511034157681917
-56.31608136,0.9995685032717184,1.511034157681917
-56.30875712,0.9995685032717184,1.51111795886693
-56.30143287999999,0.9995685032717184,1.51111795886693
-56.29410864,0.9995685032717184,1.51111795886693
-56.28678439999999,0.9994848948710915,1.51111795886693
-56.27946015999999,0.9994848948710915,1.511034157681917
-56.27213592,0.9994848948710915,1.51111795886693
-56.26481167999999,0.9995685032717184,1.51111795886693
-56.25748744,0.9995685032717184,1.51111795886693
-56.2501632,0.9995685032717184,1.51111795886693
-56.24283895999999,0.9995685032717184,1.51111795886693
-56.23551472,0.9995685032717184,1.51111795886693
-56.22819047999999,0.9995685032717184,1.51111795886693
-56.22086623999999,0.9995685032717184,1.51111795886693
-56.213542,0.9994848948710915,1.51111795886693
-56.20621775999999,0.9995685032717184,1.51111795886693
-56.19889352,0.9995685032717184,1.511034157681917
-56.19156928,0.9995685032717184,1.511034157681917
-56.18424503999999,0.9994848948710915,1.51111795886693
-56.1769208,0.9994848948710915,1.51111795886693
-56.16959656,0.9995685032717184,1.511201760051942
-56.16227231999999,0.9995685032717184,1.51111795886693
-56.15494808,0.9994848948710915,1.51111795886693
-56.14762383999999,0.9994848948710915,1.51111795886693
-56.1402996,0.9995685032717183,1.511201760051942
-56.13297536,0.9994848948710915,1.511201760051942
-56.12565111999999,0.9994848948710915,1.51111795886693
-56.11832688,0.9994848948710915,1.51111795886693
-56.11100264,0.9995685032717184,1.51111795886693
-56.10367839999999,0.9994848948710915,1.51111795886693
-56.09635416,0.9994848948710915,1.51111795886693
-56.08902991999999,0.9994848948710915,1.511201760051942
-56.08170567999999,0.9994848948710914,1.511201760051942
-56.07438144,0.9994012864704644,1.51111795886693
-56.06705719999999,0.9994012864704644,1.51111795886693
-56.05973296,0.9994012864704644,1.51111795886693
-56.05240872,0.9994012864704644,1.511285561236955
-56.04508447999999,0.9994012864704644,1.511201760051942
-56.03776024,0.9994848948710915,1.51111795886693
-56.03043599999999,0.9994848948710915,1.51111795886693
-56.02311175999999,0.9994848948710916,1.51111795886693
-56.01578752,0.9995685032717184,1.51111795886693
-56.00846327999999,0.9994848948710915,1.51111795886693
-56.00113904,0.9994848948710915,1.51111795886693
-55.9938148,0.9994848948710915,1.511034157681917
-55.98649055999999,0.9994848948710915,1.51111795886693
-55.97916632,0.9994848948710915,1.51111795886693
-55.97184207999999,0.9994848948710915,1.51111795886693
-55.96451783999999,0.9994848948710915,1.511201760051942
-55.9571936,0.9994848948710915,1.51111795886693
-55.94986935999999,0.9994848948710915,1.511201760051942
-55.94254512,0.9994848948710915,1.511201760051942
-55.93522088,0.9994848948710915,1.511201760051942
-55.92789663999999,0.9994012864704644,1.511201760051942
