measurements/pss-hpfsimple-scaling-office.csv

#Digilent WaveForms Oscilloscope Acquisition
#Device Name: Discovery3
#Serial Number: SN:210415BE4E00
#Date Time: 2026-04-06 16:37:35.999.661.312
#Sample rate: 136.533Hz
#Samples: 16000
#Trigger: Source: Channel 1 Type: Edge Condition: Rising Level: 0 V Hyst.: Auto HoldOff: 0 s
#Channel 1: Range: 200 mV/div Offset: -1 V Sample Mode: Average
#Channel 2: Range: 200 mV/div Offset: -1.5 V Sample Mode: Average
#Wavegen Channel 1: Disabled
#Mode: Simple
#Type: Sine
#Frequency: 1 kHz
#Period: 1 ms
#Amplitude: 1 V
#Offset: 0 V
#Symmetry: 50 %
#Phase: 0 °
#Wavegen Channel 2: Disabled
#Mode: Simple
#Type: Sine
#Frequency: 1 kHz
#Period: 1 ms
#Amplitude: 1 V
#Offset: 0 V
#Symmetry: 50 %
#Phase: 0 °
#Wavegen Channel 3: Disabled
#Mode: Simple
#Type: DC
#Offset: 2.75 V
#Wavegen Channel 4: Disabled
#Mode: Simple
#Type: DC
#Offset: -2.75 V

Time (s),Channel 1 (V),Channel 2 (V)
-58.59392,0.3633541822507963,1.470238384854035
-58.58659575999999,0.3604636294361088,1.471895748144564
-58.57927151999999,0.3496447031868496,1.469824044031402
-58.57194728,0.3481581331678674,1.471647143650985
-58.56462303999999,0.3384954280444833,1.469906912195929
-58.5572988,0.3356874624530725,1.4710670664993
-58.54997456,0.3294108334840367,1.470569857512141
-58.54265031999999,0.3242904256408758,1.470486989347614
-58.53532608,0.3218128089425721,1.471481407321932
-58.52800183999999,0.3139670227312773,1.470072648524982
-58.52067759999999,0.3142973716243845,1.471812879980038
-58.51335336,0.3061212365199825,1.469741175866876
-58.50602911999999,0.3071948704225808,1.471398539157406
-58.49870488,0.3012485903466521,1.469989780360455
-58.49138064,0.3003401308906074,1.470652725676667
-58.48405639999999,0.2990187353181788,1.470984198334773
-58.47673216,0.2958804208336608,1.470238384854035
-58.46940791999999,0.297779926969027,1.471564275486459
-58.46208367999999,0.2924943446793126,1.469741175866876
-58.45475944,0.2968714675129823,1.471730011815511
-58.44743519999999,0.292329170232759,1.469741175866876
-58.44011096,0.2956326591638305,1.471149934663826
-58.43278672,0.2944764380379554,1.470321253018561
-58.42546247999999,0.296210769726768,1.470652725676667
-58.41813824,0.2994316714345627,1.471398539157406
-58.41081399999999,0.2986057992017949,1.470072648524982
-58.40348975999999,0.3049650153941075,1.471812879980038
-58.39616552,0.3030655092587414,1.469658307702349
-58.38884127999999,0.3107461210234826,1.471647143650985
-58.38151704,0.3106635338002059,1.469989780360457
-58.3741928,0.3172705116623489,1.471149934663826
-58.36686855999999,0.3213172856029114,1.470735593841194
-58.35954432,0.3258595828831348,1.470404121183088
-58.35222008,0.3341183052108135,1.471564275486459
-58.34489583999999,0.3361003985694564,1.469906912195929
-58.3375716,0.3466715631488853,1.471812879980038
-58.33024735999999,0.3485710692842513,1.469824044031402
-58.32292311999999,0.3594725827567915,1.471564275486458
-58.31559888,0.3640974672602875,1.470321253018561
-58.30827463999999,0.3727691257043502,1.470652725676667
-58.3009504,0.3821840691579039,1.471315670992879
-58.29362616,0.3885432853502165,1.470238384854035
-58.28630191999999,0.4010139560650114,1.471812879980038
-58.27897768,0.4076209339271545,1.469906912195929
-58.27165343999999,0.4243861402523423,1.471812879980038
-58.26432919999999,0.433222973142973,1.469989780360456
-58.25700496,0.448997132788825,1.471232802828353
-58.24968071999999,0.4612200418337896,1.470569857512141
-58.24235648,0.4760031548003346,1.47081846200572
-58.23503224,0.4928509483487993,1.471564275486459
-58.22770799999999,0.5051564446170407,1.470072648524982
-58.22038376,0.5254729015431303,1.472144352638144
-58.21305951999999,0.5362918277923896,1.469989780360455
-58.20573527999999,0.556690871941756,1.471647143650985
-58.19841104,0.5704003510057029,1.470238384854035
-58.19108679999999,0.5895605868059175,1.470984198334773
-58.18376256,0.6074820142569806,1.4710670664993
-58.17643832,0.6239168716890613,1.470321253018561
-58.16911407999999,0.6453069625177492,1.471647143650985
-58.16178984,0.6600074882610174,1.469906912195929
-58.15446559999999,0.6837926085647322,1.471895748144564
-58.14714135999999,0.6984105470847236,1.469906912195929
-58.13981712,0.7212872079323938,1.471398539157406
-58.13249287999999,0.7385479375972424,1.470486989347614
-58.12516864,0.7590295689698857,1.470652725676667
-58.1178444,0.7804196597985738,1.471398539157406
-58.11052015999999,0.7977629766866992,1.470072648524982
-58.10319592,0.8217132714369675,1.471812879980038
-58.09587167999999,0.8375700183061108,1.469741175866876
-58.08854743999999,0.862346185289147,1.471730011815511
-58.0812232,0.8783681066048439,1.469741175866876
-58.07389895999999,0.9014925291223443,1.470984198334773
-58.06657472,0.9207353521458359,1.470404121183088
-58.05925048,0.9411343962952023,1.470569857512141
-58.05192623999999,0.9633503593566582,1.471315670992879
-58.044602,0.9799503912352926,1.469741175866876
-58.03727775999999,1.004396209325222,1.471895748144564
-58.02995351999999,1.020087781747811,1.469989780360455
-58.02262928,1.043955489274803,1.471730011815511
-58.01530503999999,1.060638108376714,1.470321253018561
-58.0079808,1.081780437535552,1.47081846200572
-58.00065656,1.101849132791831,1.471315670992879
-57.99333231999999,1.119275036903233,1.470404121183088
-57.98600808,1.141408412741412,1.471647143650985
-57.97868384,1.15586117681485,1.469741175866876
-57.97135959999999,1.179150773778904,1.471812879980038
-57.96403536,1.193190601735958,1.469989780360455
-57.95671111999999,1.214332930894816,1.471315670992879
-57.94938687999999,1.230189677763975,1.470486989347614
-57.94206264,1.248111105215022,1.470652725676667
-57.93473839999999,1.267106166568683,1.471481407321932
-57.92741416,1.280650471186076,1.470072648524982
-57.92008992,1.30137986422855,1.471812879980038
-57.91276567999999,1.312611726594193,1.469741175866876
-57.90544144,1.332845596297006,1.471647143650985
-57.89811719999999,1.344738156448863,1.470155516689508
-57.89079295999999,1.361998886113725,1.471067066499299
-57.88346872,1.375956126847489,1.47081846200572
-57.87614447999999,1.389335257018329,1.470569857512141
-57.86882024,1.405687527227133,1.471647143650985
-57.861496,1.415102470680687,1.469741175866876
-57.85417175999999,1.432528374792088,1.471812879980038
-57.84684752,1.440126399333553,1.469906912195929
-57.83952327999999,1.455239861193205,1.471564275486459
-57.83219903999999,1.463828932413991,1.470321253018561
-57.8248748,1.475721492565849,1.470901330170247
-57.81755055999999,1.487366291047876,1.471315670992879
-57.81022632,1.494881728366063,1.470238384854035
-57.80290208,1.506691701294644,1.471812879980038
-57.79557783999999,1.509582254109331,1.469906912195929
-57.7882536,1.520979290921528,1.471978616309091
-57.78092935999999,1.523291733173278,1.470072648524982
-57.77360511999999,1.532541502180278,1.471315670992879
-57.76628088,1.537166386683778,1.470652725676667
-57.75895663999999,1.542947492313154,1.47081846200572
-57.7516324,1.550132580738234,1.471647143650985
-57.74430816,1.551619150757216,1.470155516689508
-57.73698391999999,1.560290809201279,1.471978616309091
-57.72965968,1.559960460308172,1.469989780360455
-57.72233543999999,1.567888833742744,1.471647143650985
-57.71501119999999,1.568136595412574,1.470321253018561
-57.70768696,1.573339590479012,1.470984198334773
-57.70036271999999,1.57647790496353,1.4710670664993
-57.69303848,1.577551538866128,1.470404121183088
-57.68571424,1.582837121155842,1.471647143650985
-57.67838999999999,1.580772440573922,1.469906912195929
-57.67106576,1.586718720649851,1.471812879980038
-57.66374151999999,1.58366299338861,1.469824044031402
-57.65641727999999,1.58804011622228,1.471232802828353
-57.64909304,1.586553546203298,1.470321253018561
-57.64176879999999,1.587627180105896,1.470652725676667
-57.63444456,1.589113750124877,1.471315670992879
-57.62712032,1.586305784533467,1.470155516689508
-57.61979607999999,1.589278924571432,1.471812879980038
-57.61247184,1.583828167835164,1.469824044031402
-57.6051476,1.587131656766235,1.471647143650985
-57.59782335999999,1.581763487253244,1.469989780360455
-57.59049912,1.582506772262735,1.4710670664993
-57.58317487999999,1.579698806671324,1.47081846200572
-57.57585063999999,1.577056015526467,1.470569857512142
-57.5685264,1.57672566663336,1.471647143650985
-57.56120215999999,1.570201275994493,1.469989780360455
-57.55387792,1.571274909897092,1.471812879980038
-57.54655368,1.563263949239243,1.469824044031402
-57.53922943999999,1.563511710909074,1.471647143650985
-57.5319052,1.556739558600377,1.470404121183088
-57.52458095999999,1.55384900578569,1.470901330170247
-57.51725671999999,1.550462929631335,1.471315670992878
-57.50993248,1.543773364545922,1.470404121183088
-57.50260823999999,1.542204207303663,1.471812879980038
-57.495284,1.532706676626832,1.469989780360455
-57.48795976,1.531715629947511,1.471978616309091
-57.48063551999999,1.521887750377573,1.470072648524982
-57.47331128,1.519244959232716,1.471481407321932
-57.46598703999999,1.511399173021421,1.470652725676667
-57.45866279999999,1.505370305722215,1.470735593841194
-57.45133856,1.500828008441992,1.471564275486459
-57.44401431999999,1.491000128872054,1.470238384854035
-57.43669008,1.488357337727197,1.471978616309091
-57.42936584,1.476547364798616,1.469906912195929
-57.42204159999999,1.473904573653759,1.471812879980038
-57.41471736,1.463168234627777,1.470155516689508
-57.40739311999999,1.457965239561339,1.4710670664993
-57.40006887999999,1.450449802243152,1.4710670664993
-57.39274464,1.441778143799089,1.470652725676667
-57.38542039999999,1.436657735955928,1.471812879980038
-57.37809616,1.424682588580794,1.469989780360455
-57.37077192,1.420800989086785,1.471812879980038
-57.36344767999999,1.407834795032329,1.469989780360455
-57.35612344,1.403044736082276,1.471481407321932
-57.34879919999999,1.392060635386463,1.470486989347614
-57.34147495999999,1.384297436398445,1.470901330170247
-57.33415072,1.376781999080257,1.471398539157406
-57.32682647999999,1.365632723937891,1.470321253018561
-57.31950224,1.360347141648176,1.471895748144564
-57.312178,1.346968011477337,1.469989780360455
-57.30485375999999,1.34226053975056,1.471895748144564
-57.29752952,1.328385886240059,1.469906912195929
-57.29020528,1.321861495601193,1.471149934663826
-57.28288103999999,1.311372918245041,1.470652725676667
-57.2755568,1.302040562014764,1.470735593841194
-57.26823255999999,1.29469029914313,1.471647143650985
-57.26090832,1.281889279535239,1.47015551668951
-57.25358408,1.276273348352406,1.471978616309091
-57.24625983999999,1.262150933172076,1.469989780360455
-57.2389356,1.256617589212531,1.471730011815511
-57.23161136,1.243568807934799,1.470238384854035
-57.22428711999999,1.235392672830397,1.470984198334773
-57.21696288,1.22606031660012,1.471232802828353
-57.20963863999999,1.2147458670112,1.470486989347614
-57.20231439999999,1.207808540255937,1.471812879980037
-57.19499016,1.193768712298896,1.470072648524982
-57.18766591999999,1.188235368339351,1.471978616309091
-57.18034168,1.173782604265913,1.470155516689508
-57.17301744,1.16692786473394,1.471398539157406
-57.16569319999999,1.154704955688975,1.470569857512141
-57.15836896,1.145290012235421,1.47081846200572
-57.15104471999999,1.136866115461189,1.471481407321932
-57.14372047999999,1.123899921406728,1.47015551668951
-57.13639624,1.117623292437697,1.471895748144564
-57.12907199999999,1.102922766694429,1.469989780360455
-57.12174776,1.097059073841777,1.471895748144564
-57.11442352,1.083267007554554,1.470155516689508
-57.10709927999999,1.075338634119982,1.4710670664993
-57.09977504,1.064602295094,1.470901330170247
-57.09245079999999,1.053783368844741,1.470735593841194
-57.08512655999999,1.046185344303276,1.471812879980038
-57.07780232,1.032310690792776,1.469989780360455
-57.07047807999999,1.026446997940124,1.471978616309091
-57.06315384,1.011746472196856,1.469989780360455
-57.0558296,1.005387256004543,1.471647143650985
-57.04850535999999,0.99184295138715,1.470321253018561
-57.04118112,0.9827583568267033,1.470569857512141
-57.03385687999999,0.9737563494895335,1.470984198334773
-57.02653263999999,0.961120504328185,1.469989780360455
-57.0192084,0.9545961136893187,1.471647143650985
-57.01188415999999,0.9399781751693274,1.469741175866876
-57.00455992,0.9341144823166755,1.471647143650985
-56.99723568,0.9194139565734073,1.469658307702349
-56.98991143999999,0.9123114553716035,1.471149934663826
-56.9825872,0.9005014824430229,1.470486989347614
-56.97526295999999,0.8904258412032549,1.470569857512141
-56.96793871999999,0.8819193572057457,1.471398539157406
-56.96061448,0.8688705759280133,1.470155516689508
-56.95329023999999,0.8625113597357006,1.471895748144564
-56.945966,0.8475630723226021,1.469906912195929
-56.93864176,0.841369030576843,1.471647143650985
-56.93131751999999,0.8274943770663427,1.470072648524982
-56.92399328,0.8190704802921103,1.4710670664993
-56.91666904,0.808664490159235,1.4710670664993
-56.90934479999999,0.7969371044539313,1.470404121183088
-56.90202056,0.7895042543590204,1.471647143650985
-56.89469631999999,0.7751340775088593,1.469989780360455
-56.88737208,0.7692703846562128,1.471812879980037
-56.88004784,0.7543220972431088,1.469824044031402
-56.87272359999999,0.7475499449344123,1.471398539157406
-56.86539936,0.7350792742196173,1.470486989347614
-56.85807512,0.7255817435427867,1.47081846200572
-56.85075087999999,0.7165797362056169,1.471315670992879
-56.84342664,0.7039438910442684,1.470238384854035
-56.83610239999999,0.6976672620752326,1.472061484473618
-56.82877815999999,0.6828015618854056,1.469906912195931
-56.82145392,0.6770204562560356,1.471895748144564
-56.81412967999999,0.6625676921825978,1.469989780360455
-56.80680544,0.6550522548644102,1.471232802828353
-56.7994812,0.6439029797220438,1.470652725676667
-56.79215695999999,0.6336621640357222,1.470652725676667
-56.78483272,0.625898965047704,1.471481407321932
-56.77750847999999,0.6128501837699717,1.470238384854035
-56.77018423999999,0.6070690781405834,1.471978616309089
-56.76286,0.5926989012904356,1.469906912195929
-56.75553575999999,0.5871655573308907,1.471647143650985
-56.74821152,0.5744471249462655,1.470404121183088
-56.74088728,0.566436164288417,1.471149934663826
-56.73356303999999,0.5575993313978007,1.471315670992879
-56.7262388,0.5462848818088808,1.470486989347614
-56.71891455999999,0.5402560145096753,1.471730011815511
-56.71159031999999,0.5272898204552197,1.470155516689508
-56.70426608,0.5227475231749964,1.471978616309091
-56.69694183999999,0.5095335674507104,1.469989780360455
-56.6896176,0.5041653979377192,1.471232802828353
-56.68229336,0.4934290589117368,1.470404121183088
-56.67496911999999,0.4852529238073349,1.47081846200572
-56.66764488,0.4784807714986382,1.471398539157406
-56.66032063999999,0.4672489091329951,1.470072648524982
-56.65299639999999,0.4629543735226022,1.471730011815511
-56.64567216,0.4504837028078073,1.469658307702349
-56.63834791999999,0.4472628011000125,1.471730011815511
-56.63102368,0.4360309387343694,1.470155516689508
-56.62369944,0.4308279436679318,1.470984198334773
-56.61637519999999,0.4233125063497442,1.47081846200572
-56.60905096,0.4155493073617261,1.470486989347614
-56.60172671999999,0.4113373589746099,1.471647143650985
-56.59440247999999,0.4010965432882883,1.470155516689508
-56.58707824,0.3991970371529221,1.471978616309091
-56.57975399999999,0.3885432853502165,1.469824044031402
-56.57242976,0.3863960175450201,1.471481407321932
-56.56510552,0.3783024696638949,1.470321253018561
-56.55778127999999,0.374007934053502,1.470735593841194
-56.55045704,0.3702915090060465,1.471315670992879
-56.5431328,0.3636019439206267,1.470486989347614
-56.53580855999999,0.3626108972413052,1.471978616309091
-56.52848432,0.3541044132437962,1.469989780360455
-56.52116007999999,0.3548476982532872,1.472061484473618
-56.51383584,0.3469193248187228,1.470072648524984
-56.5065116,0.3465889759256084,1.471315670992879
-56.49918735999999,0.3424596147617691,1.470735593841194
-56.49186312,0.340147172510019,1.47081846200572
-56.48453888,0.3399819980634654,1.471647143650985
-56.47721463999999,0.3347790029970278,1.470072648524982
-56.4698904,0.3375043813651618,1.471895748144564
-56.46256615999999,0.3315581012892331,1.469824044031402
-56.45524191999999,0.3348615902203015,1.471647143650984
-56.44791768,0.3314755140659563,1.470155516689508
-56.44059343999999,0.3333750202013225,1.470901330170247
-56.4332692,0.3336227818711528,1.4710670664993
-56.42594496,0.3331272585314921,1.470404121183088
-56.41862071999999,0.3371740324720547,1.471812879980038
-56.41129648,0.3346138285504743,1.469906912195929
-56.40397223999999,0.3409730447427869,1.471895748144564
-56.39664799999999,0.3387431897143192,1.469989780360457
-56.38932376,0.3449372314600727,1.471481407321932
-56.38199951999999,0.3457631036928406,1.470404121183088
-56.37467528,0.3501402265265103,1.47081846200572
-56.36735104,0.3555909832627783,1.471481407321932
-56.36002679999999,0.357242727728314,1.470404121183088
-56.35270256,0.3654188628327161,1.471812879980038
-56.34537831999999,0.3657492117258232,1.469741175866876
-56.33805407999999,0.3754119168492073,1.471647143650985
-56.33072984,0.3772288357612966,1.469989780360455
-56.32340559999999,0.3859004942053593,1.4710670664993
-56.31608136,0.3916815998347345,1.470652725676667
-56.30875712,0.3985363393667078,1.470652725676667
-56.30143287999999,0.4079512828202616,1.471481407321932
-56.29410864,0.4119154695375474,1.469906912195929
-56.28678439999999,0.4243035530290655,1.471730011815511
-56.27946015999999,0.4281025652997978,1.469824044031402
-56.27213592,0.4408209976844231,1.471564275486459
-56.26481167999999,0.4469324522069054,1.470238384854035
-56.25748744,0.4582469017958253,1.470652725676667
-56.2501632,0.4715434447433881,1.470984198334773
-56.24283895999999,0.4823623709926472,1.470155516689508
-56.23551472,0.4991275773178352,1.471564275486459
-56.22819047999999,0.5087076952179426,1.469741175866876
-56.22086623999999,0.5271246460086662,1.471812879980038
-56.213542,0.5365395894622199,1.507943399713588
-56.20621775999999,0.55479136580639,1.546311359889353
-56.19889352,0.5687486065401671,1.551117713431889
-56.19156928,0.5846053534093103,1.55700135311327
-56.18424503999999,0.60260936808365,1.563630806275389
-56.1769208,0.6159884982544896,1.567525610008134
-56.16959656,0.6363875424038561,1.574983744815518
-56.16227231999999,0.6490233875652047,1.57896141671279
-56.15494808,0.6714045250732141,1.586668156013753
-56.14762383999999,0.6856921147000983,1.591143036898184
-56.1402996,0.7054304610632326,1.598021094553876
-56.13297536,0.7232693012910367,1.603904734235263
-56.12565111999999,0.7405300309558853,1.609374033094012
-56.11832688,0.7616723601147429,1.616417827078763
-56.11100264,0.7762902986347343,1.620478367140561
-56.10367839999999,0.7990843722591278,1.627605029289839
-56.09635416,0.813784898002396,1.631085492199952
-56.08902991999999,0.8365789716267893,1.638543627007336
-56.08170567999999,0.8530964162821649,1.643267112385351
-56.07438144,0.8729999370918526,1.648902147573147
-56.06705719999999,0.8931512195713888,1.654785787254528
-56.05973296,0.9098338386732999,1.659094931809906
-56.05240872,0.9325453250744165,1.665890121301078
-56.04508447999999,0.9471632635944079,1.669121979717611
-56.03776024,0.9702876861119084,1.675834301044257
-56.03043599999999,0.9849882118551766,1.67906615946079
-56.02311175999999,1.006873826023541,1.685198403635754
-56.01578752,1.024630079028035,1.689507548191127
-56.00846327999999,1.043047029818758,1.693816692746505
-56.00113904,1.063446073968125,1.6991202552762
-55.9938148,1.07822918693467,1.701606300211995
-55.98649055999999,1.100445149996126,1.707324203564323
-55.97916632,1.113576518497135,1.70856722603222
-55.97184207999999,1.1350491965491,1.71353931590381
-55.96451783999999,1.14917161172943,1.715196679194339
-55.9571936,1.168001498636538,1.718511405775399
-55.94986935999999,1.185344815524663,1.721991868685512
-55.94254512,1.200623451830869,1.723732100140568
-55.93522088,1.219783687631084,1.727544035708787
-55.92789663999999,1.23093296277345,1.727792640202366
-55.9205724,1.251166832476263,1.731438839441531
-55.91324815999999,1.262150933172076,1.731438839441531
